An R Interface to the 'Tiingo' Stock Price API • riingo
…
# Then add a line in the environment file that looks like:
RIINGO_TOKEN = token_here

Do not put the token in quotes, and restart R after you have set it.

See the documentation ?riingo_get_token() for more information.

Basic example

library(riingo)

Let’s grab some data with riingo. The default parameters attempt to get 1 year’s worth of data.

riingo_prices("AAPL")
#> # A tibble: 251 x 14
#>    ticker date                close  high   low  open volume adjClose
#>    <chr>  <dttm>              <dbl> <dbl> <dbl> <dbl>  <int>    <dbl>
#>  1 AAPL   2018-05-10 00:00:00  190.  190.  188.  188. 2.80e7     187.
#>  2 AAPL   2018-05-11 00:00:00  189.  190.  187.  189. 2.62e7     186.
#>  3 AAPL   2018-05-14 00:00:00  188.  190.  188.  189. 2.08e7     186.
#>  4 AAPL   2018-05-15 00:00:00  186.  187.  185.  187. 2.37e7     184.
#>  5 AAPL   2018-05-16 00:00:00  188.  188.  186   186. 1.92e7     186.
#>  6 AAPL   2018-05-17 00:00:00  187.  189.  186.  188  1.73e7     185.
#>  7 AAPL   2018-05-18 00:00:00  186.  188.  186.  187. 1.83e7     184.
#>  8 AAPL   2018-05-21 00:00:00  188.  189.  187.  188  1.84e7     186.
#>  9 AAPL   2018-05-22 00:00:00  187.  189.  187.  188. 1.52e7     185.
#> 10 AAPL   2018-05-23 00:00:00  188.  188.  186.  186. 2.01e7     186.
#> # … with 241 more rows, and 6 more variables: adjHigh <dbl>, adjLow <dbl>,
#> #   adjOpen <dbl>, adjVolume <int>, divCash <dbl>, splitFactor <dbl>

But of course you can try and get as much as is available…

riingo_prices("AAPL", start_date = "1950-01-01")
#> # A tibble: 9,683 x 14
#>    ticker date                close  high   low  open volume adjClose
#>    <chr>  <dttm>              <dbl> <dbl> <dbl> <dbl>  <int>    <dbl>
#>  1 AAPL   1980-12-12 00:00:00  28.8  28.9  28.8  28.8 2.09e6    0.413
#>  2 AAPL   1980-12-15 00:00:00  27.2  27.4  27.2  27.4 7.85e5    0.392
#>  3 AAPL   1980-12-16 00:00:00  25.2  25.4  25.2  25.4 4.72e5    0.363
#>  4 AAPL   1980-12-17 00:00:00  25.9  26    25.9  25.9 3.86e5    0.372
#>  5 AAPL   1980-12-18 00:00:00  26.6  26.8  26.6  26.6 3.28e5    0.383
#>  6 AAPL   1980-12-19 00:00:00  28.2  28.4  28.2  28.2 2.17e5    0.406
#>  7 AAPL   1980-12-22 00:00:00  29.6  29.8  29.6  29.6 1.67e5    0.426
#>  8 AAPL   1980-12-23 00:00:00  30.9  31    30.9  30.9 2.10e5    0.444
#>  9 AAPL   1980-12-24 00:00:00  32.5  32.6  32.5  32.5 2.14e5    0.467
#> 10 AAPL   1980-12-26 00:00:00  35.5  35.6  35.5  35.5 2.48e5    0.510
#> # … with 9,673 more rows, and 6 more variables: adjHigh <dbl>,
#> #   adjLow <dbl>, adjOpen <dbl>, adjVolume <int>, divCash <dbl>,
#> #   splitFactor <dbl>

And multiple tickers work as well.

riingo_prices(c("AAPL", "IBM"), start_date = "2001-01-01", end_date = "2005-01-01", resample_frequency = "monthly")
#> # A tibble: 98 x 14
#>    ticker date                close  high   low  open volume adjClose
#>    <chr>  <dttm>              <dbl> <dbl> <dbl> <dbl>  <int>    <dbl>
#>  1 AAPL   2001-01-31 00:00:00  21.6  22.5  14.4  14.9 2.45e8    1.36 
#>  2 AAPL   2001-02-28 00:00:00  18.2  21.9  18    20.7 1.25e8    1.15 
#>  3 AAPL   2001-03-30 00:00:00  22.1  23.8  17.2  17.8 1.93e8    1.39 
#>  4 AAPL   2001-04-30 00:00:00  25.5  27.1  18.8  22.1 1.99e8    1.60 
#>  5 AAPL   2001-05-31 00:00:00  20.0  26.7  19.3  25.4 1.33e8    1.25 
#>  6 AAPL   2001-06-29 00:00:00  23.2  25.1  19.4  20.1 1.36e8    1.46 
#>  7 AAPL   2001-07-31 00:00:00  18.8  25.2  17.8  23.6 1.55e8    1.18 
#>  8 AAPL   2001-08-31 00:00:00  18.6  19.9  17.3  19.0 9.16e7    1.17 
#>  9 AAPL   2001-09-28 00:00:00  15.5  19.1  14.7  18.5 9.88e7    0.974
#> 10 AAPL   2001-10-31 00:00:00  17.6  19.4  14.8  15.5 1.35e8    1.10 
#> # … with 88 more rows, and 6 more variables: adjHigh <dbl>, adjLow <dbl>,
#> #   adjOpen <dbl>, adjVolume <dbl>, divCash <dbl>, splitFactor <dbl>

Intraday data

You can get limited intraday data with riingo_iex_prices(). This gives you access to Tiingo’s direct feed to the IEX.

riingo_iex_prices("AAPL", resample_frequency = "1min")
#> # A tibble: 2,000 x 6
#>    ticker date                 open  high   low close
#>    <chr>  <dttm>              <dbl> <dbl> <dbl> <dbl>
#>  1 AAPL   2019-05-03 14:43:00  211.  211.  211.  211.
#>  2 AAPL   2019-05-03 14:44:00  211.  211.  211.  211.
#>  3 AAPL   2019-05-03 14:45:00  211.  211.  211.  211.
#>  4 AAPL   2019-05-03 14:46:00  211.  211.  211.  211.
#>  5 AAPL   2019-05-03 14:47:00  211.  211.  211.  211.
#>  6 AAPL   2019-05-03 14:48:00  211.  211.  211.  211.
#>  7 AAPL   2019-05-03 14:49:00  211.  211.  211.  211.
#>  8 AAPL   2019-05-03 14:50:00  211.  211.  211.  211.
#>  9 AAPL   2019-05-03 14:51:00  211.  211.  211.  211.
#> 10 AAPL   2019-05-03 14:52:00  211.  211.  211.  211.
#> # … with 1,990 more rows
…
Available tickers

You can check if a ticker is supported on Tiingo with is_supported_ticker() and you can get a tibble of all supported tickers with supported_tickers()

is_supported_ticker("AAPL")
#> [1] TRUE

tickers <- supported_tickers()
tickers
#> # A tibble: 78,038 x 6
#>    ticker exchange assetType priceCurrency startDate          
#>    <chr>  <chr>    <chr>     <chr>         <dttm>             
#>  1 000001 SHE      Stock     CNY           2007-08-30 00:00:00
#>  2 000002 SHE      Stock     CNY           2000-01-04 00:00:00
#>  3 000003 SHE      Stock     CNY           NA                 
#>  4 000004 SHE      Stock     CNY           2007-08-31 00:00:00
#>  5 000005 SHE      Stock     CNY           2001-01-02 00:00:00
#>  6 000006 SHE      Stock     CNY           2018-01-02 00:00:00
#>  7 000007 SHE      Stock     CNY           2007-08-31 00:00:00
#>  8 000008 SHE      Stock     CNY           2000-01-03 00:00:00
#>  9 000009 SHE      Stock     CNY           2000-01-03 00:00:00
#> 10 000010 SHE      Stock     CNY           2007-08-31 00:00:00
#> # … with 78,028 more rows, and 1 more variable: endDate <dttm>
…
Crypto data

Cryptocurrency data can be accessed with riingo_crypto_*() functions. By default, 1 year’s worth is pulled if available. Some tickers go back much further than others.

riingo_crypto_prices(c("btcusd", "btceur"))
#> # A tibble: 722 x 11
#>    ticker baseCurrency quoteCurrency date                 open  high   low
#>    <chr>  <chr>        <chr>         <dttm>              <dbl> <dbl> <dbl>
#>  1 btceur btc          eur           2018-05-10 00:00:00 7856. 7913. 7554.
#>  2 btceur btc          eur           2018-05-11 00:00:00 7551. 7574. 6987.
#>  3 btceur btc          eur           2018-05-12 00:00:00 7049. 7255. 6851.
#>  4 btceur btc          eur           2018-05-13 00:00:00 7102. 7337. 6982.
#>  5 btceur btc          eur           2018-05-14 00:00:00 7280. 7445. 6916.
#>  6 btceur btc          eur           2018-05-15 00:00:00 7270. 7424. 7121.
#>  7 btceur btc          eur           2018-05-16 00:00:00 7173. 7195. 6858.
#>  8 btceur btc          eur           2018-05-17 00:00:00 7073. 7166. 6781.
#>  9 btceur btc          eur           2018-05-18 00:00:00 6838. 7035. 6723.
#> 10 btceur btc          eur           2018-05-19 00:00:00 6999. 7133. 6885.
#> # … with 712 more rows, and 4 more variables: close <dbl>, volume <dbl>,
#> #   volumeNotional <dbl>, tradesDone <dbl>

Intraday data is available as well. The intraday ranges are not well documented, so it is a little hard to know what you can pull. From what I have discovered, you can pull a few days at a time, with the max date of intraday data being about ~4 months back (When the date was April 5, 2018, I could pull intraday data back to December 15, 2017, but only 5000 minutes at a time).

riingo_crypto_prices("btcusd", start_date = Sys.Date() - 5, end_date = Sys.Date(), resample_frequency = "1min")
#> # A tibble: 4,831 x 11
#>    ticker baseCurrency quoteCurrency date                 open  high   low
#>    <chr>  <chr>        <chr>         <dttm>              <dbl> <dbl> <dbl>
#>  1 btcusd btc          usd           2019-05-05 00:00:00 5927. 5956. 5927.
#>  2 btcusd btc          usd           2019-05-05 00:01:00 6098. 6105  6098.
#>  3 btcusd btc          usd           2019-05-05 00:02:00 5978. 5978. 5974.
#>  4 btcusd btc          usd           2019-05-05 00:03:00 6099. 6102. 6099.
#>  5 btcusd btc          usd           2019-05-05 00:04:00 6094. 6096. 6093.
#>  6 btcusd btc          usd           2019-05-05 00:05:00 6074. 6074. 6073.
#>  7 btcusd btc          usd           2019-05-05 00:06:00 6105. 6105. 6100.
#>  8 btcusd btc          usd           2019-05-05 00:07:00 6081. 6081. 6077.
#>  9 btcusd btc          usd           2019-05-05 00:08:00 6069. 6069. 6069.
#> 10 btcusd btc          usd           2019-05-05 00:09:00 6098. 6098. 6098.
#> # … with 4,821 more rows, and 4 more variables: close <dbl>, volume <dbl>,
#> #   volumeNotional <dbl>, tradesDone <dbl>
…
